817363 91930
562777 78621
738963 757307
734010 707070
53530 330769
204468 45132
176227 273377
39019 745710
201550 723907
579504 929695
596438 587925
459809 334489
445017 786285
19704 267522
78715 920529
870674 199748
407855 324568
941629 379612
32390 476554
404013 633295
490597 17630
160651 274650
450241 167349
286677 68730
302678 376327
876117 591985
356471 890623
489399 324757
23002 201700
388361 375789
964282 94481
773053 432945
999920 581247
124855 424149
837095 505317
108032 873905
299780 188732
804813 426391
22685 360014
497287 570799
916707 778340
931717 459244
546971 971185
819346 440450
844702 595536
923353 450179
410595 638519
33604 741896
653383 995485
663692 582867
976895 382942
23742 931714
688802 962705
822619 799878
939161 200337
701027 971969
752013 801747
453087 905755
279027 743283
950633 801396
691755 818038
658585 615013
388227 811682
511311 62602
774357 746104
713920 104390
533843 915372
925398 369780
216202 776138
166027 360576
955307 857608
751866 197597
778975 136484
479337 964116
362267 335079
652048 314811
805825 787949
238266 800122
382412 660334
590426 80922
80387 300310
881351 732207
464982 354865
365629 792432
937460 697320
137588 689331
37410 984399
695119 305897
755494 407477
386778 459211
90421 796187
13772 969436
287278 479264
457189 116301
480243 428674
539656 213065
179723 662548
825235 770136
155886 2702
687151 267627
455987 448041
510506 311323
533033 657393
915081 243031
245687 405373
971352 26356
753323 312180
853991 449353
134107 575492
177167 55
634295 575907
234903 87145
658947 356617
89092 932396
718200 130857
780396 292315
57182 3736
796865 685936
890381 383884
298947 247223
344823 335495
452826 163948
147331 907365
249119 111814
369405 529237
565619 201211
116648 856906
214975 753019
943855 113388
241923 247886
731936 624814
674757 813597
864418 48303
139794 95853
864723 308720
697400 901664
849952 375014
135936 237726
749607 546551
445422 455183
471867 281408
809722 322854
109157 573849
603239 528257
969945 348410
259439 82739
381324 148674
618650 78091
907425 249965
707205 620757
102257 873942
672006 127473
759890 961558
124057 496572
585478 968857
840162 795702
648154 141616
187346 566364
679322 486905
364727 313491
158996 909499
137312 548498
843917 470669
969323 439224
711344 120335
701036 880401
129072 274523
89874 671816
937433 566593
356193 897354
787708 269895
523415 607990
721145 725283
406388 703678
60054 270378
167722 63018
125073 928617
804782 154792
364718 57953
369007 486
844559 612060
323333 1085
859788 465929
868963 6404
442184 429866
288603 220829
503597 987701
959283 278253
51415 212795
333186 336163
240606 760489
192668 371446
901333 438993
821681 624386
957424 832774
196506 940683
616145 602393
566713 951834
435370 445816
689254 656121
591460 668790
346126 321377
981520 940145
423459 774659
108844 656153
335177 628592
243850 948117
735386 459542
625515 427956
930888 590643
432025 904858
785057 221528
803801 519385
217212 507449
402378 6896
527482 289504
76871 104381
584204 573742
618446 783343
763918 506916
