785948 226239
878103 755815
617029 404059
87646 125695
826929 899188
11505 13054
318884 303494
395745 467393
592168 339443
18306 11485
450418 213167
607793 373221
545952 543167
885042 934099
221700 588990
959612 681340
58991 113295
124960 835380
196627 844133
632429 799559
735199 396352
784109 797009
186828 762725
620415 797550
390826 844671
847572 545293
749778 488696
752118 467317
709029 707383
759991 183417
445645 532514
582175 989068
909269 200716
130024 841961
175066 403156
171365 863759
424166 866943
234905 185601
210267 859094
291507 278064
429966 604865
283512 350145
271295 310083
513343 190912
170690 18324
870452 116841
669571 642488
571977 15974
277791 968124
74347 919106
859775 158967
333544 148607
786001 705374
995419 287378
58474 158545
585615 670665
427692 567806
20127 326846
158219 767586
207018 412206
806150 442773
78053 506362
530242 432664
453191 636970
590996 396654
855011 37952
953744 982484
183203 985652
10783 647400
600132 115113
633564 695854
749486 779985
380750 12333
97201 304291
278548 960285
80868 614294
533590 6354
25734 371257
553225 107102
242428 94320
294677 791216
331033 432176
7723 251366
704318 17516
314500 378345
60629 63165
448587 623145
301431 335615
701987 800883
348850 569529
326629 322179
746797 634831
77941 51139
372732 451301
810360 664915
433703 331440
187226 157696
736627 169403
995146 202790
149968 402960
479217 500223
492529 5603
523576 589487
229716 836913
21156 607926
426886 441947
812068 968001
418354 260438
656965 570668
895641 765281
88796 78548
680641 306795
522280 117037
207077 560820
660089 694121
240318 721823
550681 579975
539480 875549
922329 277523
351803 679424
871809 936022
295761 583610
600285 82638
797975 608398
47454 147004
77754 257699
879916 30970
327584 97120
725259 174289
997738 456269
914306 232798
13225 691385
999211 619947
746569 271453
830360 239120
166332 753883
221277 974005
623953 600863
502363 760737
714981 395354
238587 81707
437847 340843
990384 593277
787024 40323
179100 216088
905071 729416
719017 566951
322688 996147
610262 50861
983892 433962
134510 641834
172760 9393
128858 676568
606774 977077
228591 926299
929929 560712
80151 32484
560628 760271
80506 105405
929463 509308
198481 2631
391338 152987
436635 480486
731443 51335
502863 780723
107023 533204
711882 540712
591389 804822
704194 207715
136025 705660
785092 926335
765970 337962
506865 68513
375120 95045
162743 168214
457842 40867
375325 51841
120875 312187
761333 396463
774186 145172
52815 211053
851564 732715
855187 795494
764367 114846
358997 254332
285520 444632
97951 7248
302729 513646
673722 681511
859932 458797
608882 775245
662775 13946
614546 985468
943776 425242
175537 223267
261608 670785
43985 32302
544425 711535
724727 673610
259997 637334
773989 832803
968420 970326
163692 925397
920667 227720
992021 724962
959470 835500
680918 830634
172047 434929
297405 489356
159769 563830
541053 904647
764162 351391
778650 214165
72209 627233
317263 702254
959535 175460
165584 526012
616584 867818
968783 119536
883032 260024
100346 784457
345246 608971
575339 398841
467581 900573
699515 174797
362126 932003
844156 606734
865114 281842
447734 339662
387522 564869
81345 307807
897363 155723
481027 830900
192140 117028
165899 974328
332508 26786
616913 827373
801081 414936
533541 445388
278790 493966
134617 282721
487045 198701
817427 825797
764369 276286
875640 173956
493095 334909
141410 947124
570686 523848
997604 137641
741647 491735
516101 935250
449426 756034
232385 803098
576468 362354
893620 471794
391446 997505
